# Blender v2.71 (sub 0) OBJ File: ''
# www.blender.org
mtllib paddle.mtl
o Cube_Cube.003
v -1.652396 0.428675 -0.288211
v 1.752235 0.309457 -0.390250
v -1.449179 0.506163 -0.269920
v 2.188920 0.040368 -0.239552
v 2.102092 0.289439 -0.171232
v 1.769411 0.060323 -0.525236
v -1.911093 0.101615 -0.327277
v 0.076553 0.366348 -0.521554
v 1.782930 0.388688 -0.175711
v -0.061216 0.084367 -0.631127
v 2.173176 0.144833 -0.211363
v 1.762892 0.187495 -0.469198
v -1.833347 0.283755 -0.317821
v -0.013918 0.240744 -0.592290
v -1.652396 0.428675 0.288211
v 1.752235 0.309456 0.390250
v -1.449179 0.506163 0.269920
v 2.188920 0.040368 0.239552
v 2.102092 0.289439 0.171232
v 1.769411 0.060323 0.525236
v -1.911093 0.101615 0.327277
v 0.076553 0.366348 0.521554
v 1.782930 0.388688 0.175711
v -0.061216 0.083780 0.631127
v 2.173176 0.144833 0.211363
v 1.762892 0.187495 0.469198
v -1.833347 0.283755 0.317821
v -0.013918 0.240744 0.592290
v 0.071379 0.463343 -0.238305
v -1.438886 0.398475 -0.590747
v -1.713484 0.085368 -0.672720
v -1.619130 0.255418 -0.652276
v 0.071379 0.463343 0.238305
v -1.438886 0.398475 0.590747
v -1.713484 0.084782 0.672720
v -1.619130 0.255418 0.652276
v -1.652396 -0.428675 -0.288211
v 1.752235 -0.309456 -0.390250
v -1.449179 -0.506163 -0.269920
v 2.188920 -0.040368 0.239552
v 2.102092 -0.289439 -0.171232
v 2.188920 -0.040368 -0.239552
v -1.911093 -0.101615 -0.327277
v 0.076553 -0.366348 -0.521554
v 1.782930 -0.388688 -0.175711
v 1.769411 -0.060323 -0.525236
v 2.173176 -0.144833 -0.211363
v 1.762892 -0.187495 -0.469198
v -1.833347 -0.283755 -0.317821
v -0.013918 -0.240744 -0.592290
v -1.652396 -0.428675 0.288211
v 1.752235 -0.309457 0.390250
v -1.449179 -0.506163 0.269920
v -0.061216 -0.084367 -0.631127
v 2.102092 -0.289439 0.171232
v -1.911093 -0.101615 0.327277
v 0.076553 -0.366348 0.521554
v 1.782930 -0.388688 0.175711
v 2.173176 -0.144833 0.211363
v 1.762892 -0.187495 0.469198
v -1.833347 -0.283755 0.317821
v -0.013918 -0.240744 0.592290
v 0.071379 -0.463343 -0.238305
v -1.438886 -0.398475 -0.590747
v -1.713484 -0.085368 -0.672720
v -1.619130 -0.255418 -0.652276
v 0.071379 -0.463343 0.238305
v -1.438886 -0.398475 0.590747
v -1.713484 -0.084782 0.672720
v -1.619130 -0.255418 0.652276
v 1.769411 -0.060323 0.525236
v -0.061216 -0.083780 0.631127
v -1.535380 0.480244 -0.271220
v 2.189937 0.000000 -0.243558
v 1.757840 0.356821 -0.317201
v -1.763845 0.360247 -0.308031
v -1.540927 0.334110 -0.631582
v -1.741555 0.001174 -0.682541
v -1.925703 0.000000 -0.329618
v 2.148551 0.213033 -0.191242
v 2.161475 0.286620 0.000000
v -1.723727 0.448968 0.000000
v 1.955244 0.297263 -0.311602
v -1.797588 0.087886 -0.577277
v 1.993613 0.354507 -0.162374
v -1.527687 0.400831 -0.507950
v 1.998169 0.045357 -0.430749
v -1.975196 0.111283 0.000000
v 2.274793 0.040368 0.000000
v -1.511306 0.531407 0.000000
v -1.384478 0.453998 -0.485087
v 1.756968 0.251409 -0.429401
v 1.769411 0.000000 -0.533195
v 1.800346 0.400748 0.000000
v 1.217769 0.330868 -0.446969
v 1.224149 0.416722 -0.203576
v 1.187874 0.076311 -0.574775
v -1.707633 0.259026 -0.560345
v 1.986210 0.161018 -0.381504
v -1.905506 0.301400 0.000000
v 2.257571 0.139313 0.000000
v 1.197942 0.216618 -0.523207
v 2.183966 0.086668 -0.228499
v 1.767781 0.122277 -0.503268
v -1.877047 0.197958 -0.322572
v -1.675860 0.169978 -0.662699
v -1.535380 0.480244 0.271220
v 2.189937 0.000000 0.243558
v 1.757840 0.356821 0.317201
v -1.763845 0.360247 0.308031
v -1.540927 0.334110 0.631582
v -1.727520 0.000000 0.677630
v -1.925703 0.000000 0.329618
v 2.148551 0.213033 0.191242
v 1.955244 0.297263 0.311602
v -1.797588 0.087740 0.577277
v 1.993613 0.354507 0.162374
v -1.527687 0.400831 0.507950
v 1.998169 0.045357 0.430749
v -1.384478 0.453998 0.485087
v 1.756968 0.251409 0.429401
v 1.769411 0.000000 0.533195
v 1.217769 0.330868 0.446969
v 1.224149 0.416722 0.203576
v 1.187874 0.076165 0.574775
v -1.707633 0.259026 0.560345
v 1.986210 0.161018 0.381504
v 1.197942 0.216618 0.523207
v 2.183966 0.086668 0.228499
v 1.767781 0.122277 0.503268
v -1.877047 0.197958 0.322572
v -1.675860 0.169832 0.662699
v 0.025294 0.308736 -0.561710
v -0.075325 0.001174 -0.644172
v 0.040151 0.485629 0.000000
v 0.103901 0.416807 -0.428270
v -0.042336 0.165058 -0.614896
v 0.025294 0.308736 0.561710
v -0.068271 0.000000 0.637649
v 0.103901 0.416807 0.428270
v -0.042336 0.164911 0.614896
v -1.033643 0.502005 -0.265289
v -1.024602 0.395637 -0.580611
v -1.265715 0.086662 -0.671405
v -1.182878 0.255226 -0.645597
v -1.033643 0.502005 0.265289
v -1.024602 0.395637 0.580611
v -1.265715 0.085782 0.671405
v -1.182878 0.255226 0.645597
v -1.535380 -0.480244 -0.271220
v 1.757840 -0.356821 -0.317201
v -1.763845 -0.360247 -0.308031
v -1.540927 -0.334110 -0.631582
v -1.741555 -0.001174 -0.682541
v 2.148551 -0.213033 -0.191242
v 2.161475 -0.286620 0.000000
v -1.723727 -0.448968 0.000000
v 1.955244 -0.297263 -0.311602
v -1.797588 -0.087886 -0.577277
v 1.993613 -0.354507 -0.162374
v -1.527687 -0.400831 -0.507950
v -1.975196 -0.111283 0.000000
v -0.075325 -0.001174 -0.644172
v -1.511306 -0.531407 0.000000
v -1.384478 -0.453998 -0.485087
v 1.756968 -0.251409 -0.429401
v 1.800346 -0.400748 0.000000
v 1.217769 -0.330868 -0.446969
v 1.224149 -0.416722 -0.203576
v -1.707633 -0.259026 -0.560345
v 1.986210 -0.161018 -0.381504
v -1.905506 -0.301400 0.000000
v 2.257571 -0.139313 0.000000
v 1.197942 -0.216618 -0.523207
v 2.183966 -0.086668 -0.228499
v 1.767781 -0.122277 -0.503268
v -1.877047 -0.197958 -0.322572
v -1.675860 -0.169978 -0.662699
v -1.535380 -0.480244 0.271220
v 1.998169 -0.045357 0.430749
v 1.757840 -0.356821 0.317201
v -1.763845 -0.360247 0.308031
v -1.540927 -0.334110 0.631582
v 2.148551 -0.213033 0.191242
v 1.955244 -0.297263 0.311602
v -1.797588 -0.087740 0.577277
v 1.993613 -0.354507 0.162374
v -1.527687 -0.400831 0.507950
v -1.384478 -0.453998 0.485087
v 1.756968 -0.251409 0.429401
v 1.217769 -0.330868 0.446969
v 1.224149 -0.416722 0.203576
v 1.187874 -0.076311 -0.574775
v -1.707633 -0.259026 0.560345
v 1.986210 -0.161018 0.381504
v 1.197942 -0.216618 0.523207
v 2.183966 -0.086668 0.228499
v 1.767781 -0.122277 0.503268
v -1.877047 -0.197958 0.322572
v -1.675860 -0.169832 0.662699
v 0.025294 -0.308736 -0.561710
v 1.998169 -0.045357 -0.430749
v 0.040151 -0.485629 0.000000
v 0.103901 -0.416807 -0.428270
v -0.042336 -0.165058 -0.614896
v 0.025294 -0.308736 0.561710
v 0.103901 -0.416807 0.428270
v -0.042336 -0.164911 0.614896
v -1.033643 -0.502005 -0.265289
v -1.024602 -0.395637 -0.580611
v -1.265715 -0.086662 -0.671405
v -1.182878 -0.255226 -0.645597
v -1.033643 -0.502005 0.265289
v -1.024602 -0.395637 0.580611
v -1.265715 -0.085782 0.671405
v -1.182878 -0.255226 0.645597
v 2.274793 -0.040368 0.000000
v 1.187874 -0.076165 0.574775
v -1.631811 0.336250 -0.542935
v 1.972744 0.230232 -0.346402
v 1.998423 0.000000 -0.437746
v -1.472192 0.445220 -0.434239
v 1.909948 0.338531 -0.269724
v 1.226008 0.377313 -0.366213
v 1.206169 0.277324 -0.485936
v 0.723162 -0.000000 -0.615676
v -1.760958 0.174468 -0.568890
v 1.994925 0.096950 -0.411441
v 1.192154 0.149397 -0.554310
v 2.276320 0.000000 -0.000000
v -1.631811 0.336250 0.542935
v 1.972744 0.230232 0.346402
v 1.998423 0.000000 0.437746
v -1.472192 0.445220 0.434239
v 1.909948 0.338531 0.269724
v -1.599643 0.503944 -0.000000
v -1.840150 0.377710 0.000000
v 2.030229 0.359517 -0.000000
v 2.226463 0.205428 -0.000000
v 1.226007 0.377313 0.366213
v 1.206169 0.277324 0.485936
v 1.186110 0.000000 0.582348
v 1.220696 0.434667 -0.000000
v -1.760958 0.174431 0.568890
v 1.994925 0.096950 0.411441
v -1.942840 0.214453 0.000000
v 2.268961 0.085288 -0.000000
v 1.192154 0.149360 0.554310
v -1.114218 0.332160 -0.621874
v -1.290370 0.001760 -0.682259
v -1.088210 0.526816 -0.000000
v -0.976815 0.450603 -0.476764
v -1.232679 0.171254 -0.659526
v -1.114218 0.332160 0.621874
v -0.976815 0.450603 0.476764
v -1.232679 0.171034 0.659526
v -1.631811 -0.336250 -0.542935
v 1.972744 -0.230232 -0.346402
v -1.472192 -0.445220 -0.434239
v 1.909948 -0.338531 -0.269724
v -1.776182 -0.000000 -0.673230
v 1.226007 -0.377313 -0.366213
v 1.206169 -0.277324 -0.485936
v -1.760958 -0.174468 -0.568890
v 1.994925 -0.096950 -0.411441
v 1.192154 -0.149397 -0.554310
v -1.631811 -0.336250 0.542935
v 1.972744 -0.230232 0.346402
v -1.990130 0.000000 0.000000
v -1.472192 -0.445220 0.434239
v 1.909948 -0.338531 0.269724
v -1.811730 0.000000 0.581430
v -1.599643 -0.503944 -0.000000
v -1.840150 -0.377710 0.000000
v 2.030229 -0.359517 -0.000000
v 2.226463 -0.205428 -0.000000
v 1.226008 -0.377313 0.366213
v 1.206169 -0.277324 0.485936
v 1.220696 -0.434667 -0.000000
v -1.760958 -0.174431 0.568890
v 1.994925 -0.096950 0.411441
v -1.942840 -0.214453 0.000000
v 2.268961 -0.085288 -0.000000
v 1.192154 -0.149360 0.554310
v -1.114218 -0.332160 -0.621874
v -1.290370 -0.001760 -0.682259
v -1.088210 -0.526816 -0.000000
v -0.976815 -0.450603 -0.476764
v -1.232679 -0.171254 -0.659526
v -1.114218 -0.332160 0.621874
v -1.278043 -0.000000 0.676832
v -0.976815 -0.450603 0.476764
v -1.232679 -0.171034 0.659526
usemtl None
s off
f 1 82 236 73
f 1 73 222 86
f 1 86 219 76
f 1 76 237 82
f 2 95 224 75
f 2 75 223 83
f 2 83 220 92
f 2 92 225 95
f 3 90 251 142
f 3 142 252 91
f 3 91 222 73
f 3 73 236 90
f 4 87 228 103
f 4 103 247 89
f 4 89 230 74
f 4 74 221 87
f 5 83 223 85
f 5 85 238 81
f 5 81 239 80
f 5 80 220 83
f 6 97 229 104
f 6 104 228 87
f 6 87 221 93
f 6 93 226 97
f 7 88 246 105
f 7 105 227 84
f 7 84 261 79
f 7 79 269 88
f 8 143 252 136
f 8 136 224 95
f 8 95 225 133
f 8 133 249 143
f 9 94 238 85
f 9 85 223 75
f 9 75 224 96
f 9 96 243 94
f 10 144 253 137
f 10 137 229 97
f 10 97 226 134
f 10 134 250 144
f 11 99 220 80
f 11 80 239 101
f 11 101 247 103
f 11 103 228 99
f 12 102 225 92
f 12 92 220 99
f 12 99 228 104
f 12 104 229 102
f 13 100 237 76
f 13 76 219 98
f 13 98 227 105
f 13 105 246 100
f 14 145 249 133
f 14 133 225 102
f 14 102 229 137
f 14 137 253 145
f 15 107 236 82
f 15 82 237 110
f 15 110 231 118
f 15 118 234 107
f 16 109 240 123
f 16 123 241 121
f 16 121 232 115
f 16 115 235 109
f 17 146 251 90
f 17 90 236 107
f 17 107 234 120
f 17 120 255 146
f 18 129 245 119
f 18 119 233 108
f 18 108 230 89
f 18 89 247 129
f 19 117 235 115
f 19 115 232 114
f 19 114 239 81
f 19 81 238 117
f 20 130 248 125
f 20 125 242 122
f 20 122 233 119
f 20 119 245 130
f 21 131 246 88
f 21 88 269 113
f 21 113 272 116
f 21 116 244 131
f 22 140 255 147
f 22 147 254 138
f 22 138 241 123
f 22 123 240 140
f 23 117 238 94
f 23 94 243 124
f 23 124 240 109
f 23 109 235 117
f 24 141 256 148
f 24 148 291 139
f 24 139 242 125
f 24 125 248 141
f 25 114 232 127
f 25 127 245 129
f 25 129 247 101
f 25 101 239 114
f 26 121 241 128
f 26 128 248 130
f 26 130 245 127
f 26 127 232 121
f 27 110 237 100
f 27 100 246 131
f 27 131 244 126
f 27 126 231 110
f 28 138 254 149
f 28 149 256 141
f 28 141 248 128
f 28 128 241 138
f 29 135 243 96
f 29 96 224 136
f 29 136 252 142
f 29 142 251 135
f 30 86 222 91
f 30 91 252 143
f 30 143 249 77
f 30 77 219 86
f 31 84 227 106
f 31 106 253 144
f 31 144 250 78
f 31 78 261 84
f 32 98 219 77
f 32 77 249 145
f 32 145 253 106
f 32 106 227 98
f 33 124 243 135
f 33 135 251 146
f 33 146 255 140
f 33 140 240 124
f 34 120 234 118
f 34 118 231 111
f 34 111 254 147
f 34 147 255 120
f 35 132 244 116
f 35 116 272 112
f 35 112 291 148
f 35 148 256 132
f 36 111 231 126
f 36 126 244 132
f 36 132 256 149
f 36 149 254 111
f 37 150 273 157
f 37 157 274 152
f 37 152 257 161
f 37 161 259 150
f 38 151 262 168
f 38 168 263 166
f 38 166 258 158
f 38 158 260 151
f 39 209 287 164
f 39 164 273 150
f 39 150 259 165
f 39 165 288 209
f 40 180 281 197
f 40 197 283 217
f 40 217 230 108
f 40 108 233 180
f 41 160 260 158
f 41 158 258 155
f 41 155 276 156
f 41 156 275 160
f 42 175 265 202
f 42 202 221 74
f 42 74 230 217
f 42 217 283 175
f 43 177 282 162
f 43 162 269 79
f 43 79 261 159
f 43 159 264 177
f 44 204 288 210
f 44 210 285 201
f 44 201 263 168
f 44 168 262 204
f 45 160 275 167
f 45 167 279 169
f 45 169 262 151
f 45 151 260 160
f 46 176 266 193
f 46 193 226 93
f 46 93 221 202
f 46 202 265 176
f 47 155 258 171
f 47 171 265 175
f 47 175 283 173
f 47 173 276 155
f 48 166 263 174
f 48 174 266 176
f 48 176 265 171
f 48 171 258 166
f 49 152 274 172
f 49 172 282 177
f 49 177 264 170
f 49 170 257 152
f 50 201 285 212
f 50 212 289 205
f 50 205 266 174
f 50 174 263 201
f 51 157 273 179
f 51 179 270 188
f 51 188 267 182
f 51 182 274 157
f 52 191 277 181
f 52 181 271 185
f 52 185 268 190
f 52 190 278 191
f 53 164 287 213
f 53 213 292 189
f 53 189 270 179
f 53 179 273 164
f 54 205 289 211
f 54 211 286 163
f 54 163 226 193
f 54 193 266 205
f 55 185 271 187
f 55 187 275 156
f 55 156 276 184
f 55 184 268 185
f 56 162 282 199
f 56 199 280 186
f 56 186 272 113
f 56 113 269 162
f 57 214 292 207
f 57 207 277 191
f 57 191 278 206
f 57 206 290 214
f 58 167 275 187
f 58 187 271 181
f 58 181 277 192
f 58 192 279 167
f 59 195 268 184
f 59 184 276 173
f 59 173 283 197
f 59 197 281 195
f 60 196 278 190
f 60 190 268 195
f 60 195 281 198
f 60 198 284 196
f 61 172 274 182
f 61 182 267 194
f 61 194 280 199
f 61 199 282 172
f 62 216 290 206
f 62 206 278 196
f 62 196 284 208
f 62 208 293 216
f 63 169 279 203
f 63 203 287 209
f 63 209 288 204
f 63 204 262 169
f 64 165 259 161
f 64 161 257 153
f 64 153 285 210
f 64 210 288 165
f 65 178 264 159
f 65 159 261 154
f 65 154 286 211
f 65 211 289 178
f 66 153 257 170
f 66 170 264 178
f 66 178 289 212
f 66 212 285 153
f 67 203 279 192
f 67 192 277 207
f 67 207 292 213
f 67 213 287 203
f 68 188 270 189
f 68 189 292 214
f 68 214 290 183
f 68 183 267 188
f 69 186 280 200
f 69 200 293 215
f 69 215 291 112
f 69 112 272 186
f 70 194 267 183
f 70 183 290 216
f 70 216 293 200
f 70 200 280 194
f 71 218 284 198
f 71 198 281 180
f 71 180 233 122
f 71 122 242 218
f 72 215 293 208
f 72 208 284 218
f 72 218 242 139
f 72 139 291 215
